%YAML 1.1
%TAG !u! tag:unity3d.com,2011:
--- !u!13 &1
InputManager:
  m_ObjectHideFlags: 0
  serializedVersion: 2
  m_Axes:
  - serializedVersion: 3
    m_Name: Horizontal3
    descriptiveName: 
    descriptiveNegativeName: 
    negativeButton: left
    positiveButton: right
    altNegativeButton: 
    altPositiveButton: 
    gravity: 5
    dead: 0.001
    sensitivity: 1
    snap: 1
    invert: 0
    type: 0
    axis: 0
    joyNum: 3
  - serializedVersion: 3
    m_Name: Horizontal4
    descriptiveName: 
    descriptiveNegativeName: 
    negativeButton: a
    positiveButton: d
    altNegativeButton: 
    altPositiveButton: 
    gravity: 5
    dead: 0.001
    sensitivity: 1
    snap: 1
    invert: 0
    type: 0
    axis: 0
    joyNum: 4
  - serializedVersion: 3
    m_Name: Vertical3
    descriptiveName: 
    descriptiveNegativeName: 
    negativeButton: down
    positiveButton: up
    altNegativeButton: 
    altPositiveButton: 
    gravity: 5
    dead: 0.001
    sensitivity: 1
    snap: 1
    invert: 0
    type: 0
    axis: 0
    joyNum: 3
  - serializedVersion: 3
    m_Name: Vertical4
    descriptiveName: 
    descriptiveNegativeName: 
    negativeButton: s
    positiveButton: w
    altNegativeButton: 
    altPositiveButton: 
    gravity: 5
    dead: 0.001
    sensitivity: 1
    snap: 1
    invert: 0
    type: 0
    axis: 0
    joyNum: 4
  - serializedVersion: 3
    m_Name: Attack3
    descriptiveName: 
    descriptiveNegativeName: 
    negativeButton: 
    positiveButton: return
    altNegativeButton: 
    altPositiveButton: /
    gravity: 1000
    dead: 0.001
    sensitivity: 1000
    snap: 0
    invert: 0
    type: 0
    axis: 0
    joyNum: 3
  - serializedVersion: 3
    m_Name: Attack4
    descriptiveName: 
    descriptiveNegativeName: 
    negativeButton: 
    positiveButton: left ctrl
    altNegativeButton: 
    altPositiveButton: space
    gravity: 1000
    dead: 0.001
    sensitivity: 1000
    snap: 0
    invert: 0
    type: 0
    axis: 0
    joyNum: 4
  - serializedVersion: 3
    m_Name: Jump
    descriptiveName: 
    descriptiveNegativeName: 
    negativeButton: 
    positiveButton: space
    altNegativeButton: 
    altPositiveButton: 
    gravity: 1000
    dead: 0.001
    sensitivity: 1000
    snap: 0
    invert: 0
    type: 0
    axis: 0
    joyNum: 0
  - serializedVersion: 3
    m_Name: Mouse X
    descriptiveName: 
    descriptiveNegativeName: 
    negativeButton: 
    positiveButton: 
    altNegativeButton: 
    altPositiveButton: 
    gravity: 0
    dead: 0
    sensitivity: 0.1
    snap: 0
    invert: 0
    type: 1
    axis: 0
    joyNum: 0
  - serializedVersion: 3
    m_Name: Mouse Y
    descriptiveName: 
    descriptiveNegativeName: 
    negativeButton: 
    positiveButton: 
    altNegativeButton: 
    altPositiveButton: 
    gravity: 0
    dead: 0
    sensitivity: 0.1
    snap: 0
    invert: 0
    type: 1
    axis: 1
    joyNum: 0
  - serializedVersion: 3
    m_Name: Mouse ScrollWheel
    descriptiveName: 
    descriptiveNegativeName: 
    negativeButton: 
    positiveButton: 
    altNegativeButton: 
    altPositiveButton: 
    gravity: 0
    dead: 0
    sensitivity: 0.1
    snap: 0
    invert: 0
    type: 1
    axis: 2
    joyNum: 0
  - serializedVersion: 3
    m_Name: Horizontal1
    descriptiveName: 
    descriptiveNegativeName: 
    negativeButton: 
    positiveButton: 
    altNegativeButton: 
    altPositiveButton: 
    gravity: 0
    dead: 0.19
    sensitivity: 1
    snap: 0
    invert: 0
    type: 2
    axis: 0
    joyNum: 1
  - serializedVersion: 3
    m_Name: Horizontal2
    descriptiveName: 
    descriptiveNegativeName: 
    negativeButton: 
    positiveButton: 
    altNegativeButton: 
    altPositiveButton: 
    gravity: 0
    dead: 0.19
    sensitivity: 1
    snap: 0
    invert: 0
    type: 2
    axis: 0
    joyNum: 2
  - serializedVersion: 3
    m_Name: Horizontal3
    descriptiveName: 
    descriptiveNegativeName: 
    negativeButton: 
    positiveButton: 
    altNegativeButton: 
    altPositiveButton: 
    gravity: 0
    dead: 0.19
    sensitivity: 1
    snap: 0
    invert: 0
    type: 2
    axis: 0
    joyNum: 3
  - serializedVersion: 3
    m_Name: Horizontal4
    descriptiveName: 
    descriptiveNegativeName: 
    negativeButton: 
    positiveButton: 
    altNegativeButton: 
    altPositiveButton: 
    gravity: 0
    dead: 0.19
    sensitivity: 1
    snap: 0
    invert: 0
    type: 2
    axis: 0
    joyNum: 4
  - serializedVersion: 3
    m_Name: Vertical1
    descriptiveName: 
    descriptiveNegativeName: 
    negativeButton: 
    positiveButton: 
    altNegativeButton: 
    altPositiveButton: 
    gravity: 0
    dead: 0.19
    sensitivity: 1
    snap: 0
    invert: 1
    type: 2
    axis: 1
    joyNum: 1
  - serializedVersion: 3
    m_Name: Vertical2
    descriptiveName: 
    descriptiveNegativeName: 
    negativeButton: 
    positiveButton: 
    altNegativeButton: 
    altPositiveButton: 
    gravity: 0
    dead: 0.19
    sensitivity: 1
    snap: 0
    invert: 1
    type: 2
    axis: 1
    joyNum: 2
  - serializedVersion: 3
    m_Name: Vertical3
    descriptiveName: 
    descriptiveNegativeName: 
    negativeButton: 
    positiveButton: 
    altNegativeButton: 
    altPositiveButton: 
    gravity: 0
    dead: 0.19
    sensitivity: 1
    snap: 0
    invert: 1
    type: 2
    axis: 1
    joyNum: 3
  - serializedVersion: 3
    m_Name: Vertical4
    descriptiveName: 
    descriptiveNegativeName: 
    negativeButton: 
    positiveButton: 
    altNegativeButton: 
    altPositiveButton: 
    gravity: 0
    dead: 0.19
    sensitivity: 1
    snap: 0
    invert: 1
    type: 2
    axis: 1
    joyNum: 4
  - serializedVersion: 3
    m_Name: Attack1
    descriptiveName: 
    descriptiveNegativeName: 
    negativeButton: joystick 1 button 0
    positiveButton: joystick 1 button 1
    altNegativeButton: joystick 1 button 2
    altPositiveButton: joystick 1 button 3
    gravity: 1000
    dead: 0.001
    sensitivity: 1000
    snap: 0
    invert: 0
    type: 0
    axis: 0
    joyNum: 1
  - serializedVersion: 3
    m_Name: Attack2
    descriptiveName: 
    descriptiveNegativeName: 
    negativeButton: joystick 2 button 0
    positiveButton: joystick 2 button 1
    altNegativeButton: joystick 2 button 2
    altPositiveButton: joystick 2 button 3
    gravity: 1000
    dead: 0.001
    sensitivity: 1000
    snap: 0
    invert: 0
    type: 0
    axis: 0
    joyNum: 2
  - serializedVersion: 3
    m_Name: Attack3
    descriptiveName: 
    descriptiveNegativeName: 
    negativeButton: joystick 3 button 0
    positiveButton: joystick 3 button 1
    altNegativeButton: joystick 3 button 2
    altPositiveButton: joystick 3 button 3
    gravity: 1000
    dead: 0.001
    sensitivity: 1000
    snap: 0
    invert: 0
    type: 0
    axis: 0
    joyNum: 3
  - serializedVersion: 3
    m_Name: Attack4
    descriptiveName: 
    descriptiveNegativeName: 
    negativeButton: joystick 4 button 0
    positiveButton: joystick 4 button 1
    altNegativeButton: joystick 4 button 2
    altPositiveButton: joystick 4 button 3
    gravity: 1000
    dead: 0.001
    sensitivity: 1000
    snap: 0
    invert: 0
    type: 0
    axis: 0
    joyNum: 4
  - serializedVersion: 3
    m_Name: Submit
    descriptiveName: 
    descriptiveNegativeName: 
    negativeButton: 
    positiveButton: return
    altNegativeButton: 
    altPositiveButton: joystick button 0
    gravity: 1000
    dead: 0.001
    sensitivity: 1000
    snap: 0
    invert: 0
    type: 0
    axis: 0
    joyNum: 0
  - serializedVersion: 3
    m_Name: Submit
    descriptiveName: 
    descriptiveNegativeName: 
    negativeButton: 
    positiveButton: enter
    altNegativeButton: 
    altPositiveButton: space
    gravity: 1000
    dead: 0.001
    sensitivity: 1000
    snap: 0
    invert: 0
    type: 0
    axis: 0
    joyNum: 0
  - serializedVersion: 3
    m_Name: Cancel
    descriptiveName: 
    descriptiveNegativeName: 
    negativeButton: 
    positiveButton: escape
    altNegativeButton: 
    altPositiveButton: joystick button 1
    gravity: 1000
    dead: 0.001
    sensitivity: 1000
    snap: 0
    invert: 0
    type: 0
    axis: 0
    joyNum: 1
